%TF.GenerationSoftware,KiCad,Pcbnew,5.1.10-88a1d61d58~88~ubuntu18.04.1*%
%TF.CreationDate,2022-01-29T18:32:19+01:00*%
%TF.ProjectId,pavlov_mini_face,7061766c-6f76-45f6-9d69-6e695f666163,rev?*%
%TF.SameCoordinates,Original*%
%TF.FileFunction,Legend,Top*%
%TF.FilePolarity,Positive*%
%FSLAX46Y46*%
G04 Gerber Fmt 4.6, Leading zero omitted, Abs format (unit mm)*
G04 Created by KiCad (PCBNEW 5.1.10-88a1d61d58~88~ubuntu18.04.1) date 2022-01-29 18:32:19*
%MOMM*%
%LPD*%
G01*
G04 APERTURE LIST*
%ADD10C,0.120000*%
%ADD11C,0.150000*%
G04 APERTURE END LIST*
D10*
%TO.C,J1*%
X26162000Y-18034000D02*
X26162000Y-16764000D01*
X27432000Y-18034000D02*
X26162000Y-18034000D01*
X35432000Y-15721071D02*
X35432000Y-15324000D01*
X34672000Y-15721071D02*
X34672000Y-15324000D01*
X35432000Y-6664000D02*
X35432000Y-12664000D01*
X34672000Y-6664000D02*
X35432000Y-6664000D01*
X34672000Y-12664000D02*
X34672000Y-6664000D01*
X33782000Y-15324000D02*
X33782000Y-12664000D01*
X32892000Y-15721071D02*
X32892000Y-15324000D01*
X32132000Y-15721071D02*
X32132000Y-15324000D01*
X32892000Y-6664000D02*
X32892000Y-12664000D01*
X32132000Y-6664000D02*
X32892000Y-6664000D01*
X32132000Y-12664000D02*
X32132000Y-6664000D01*
X31242000Y-15324000D02*
X31242000Y-12664000D01*
X30352000Y-15721071D02*
X30352000Y-15324000D01*
X29592000Y-15721071D02*
X29592000Y-15324000D01*
X30352000Y-6664000D02*
X30352000Y-12664000D01*
X29592000Y-6664000D02*
X30352000Y-6664000D01*
X29592000Y-12664000D02*
X29592000Y-6664000D01*
X28702000Y-15324000D02*
X28702000Y-12664000D01*
X27812000Y-15654000D02*
X27812000Y-15324000D01*
X27052000Y-15654000D02*
X27052000Y-15324000D01*
X27712000Y-12664000D02*
X27712000Y-6664000D01*
X27592000Y-12664000D02*
X27592000Y-6664000D01*
X27472000Y-12664000D02*
X27472000Y-6664000D01*
X27352000Y-12664000D02*
X27352000Y-6664000D01*
X27232000Y-12664000D02*
X27232000Y-6664000D01*
X27112000Y-12664000D02*
X27112000Y-6664000D01*
X27812000Y-6664000D02*
X27812000Y-12664000D01*
X27052000Y-6664000D02*
X27812000Y-6664000D01*
X27052000Y-12664000D02*
X27052000Y-6664000D01*
X26102000Y-12664000D02*
X26102000Y-15324000D01*
X36382000Y-12664000D02*
X26102000Y-12664000D01*
X36382000Y-15324000D02*
X36382000Y-12664000D01*
X26102000Y-15324000D02*
X36382000Y-15324000D01*
%TO.C,J2*%
X36322000Y-62230000D02*
X36322000Y-63500000D01*
X35052000Y-62230000D02*
X36322000Y-62230000D01*
X27052000Y-64542929D02*
X27052000Y-64940000D01*
X27812000Y-64542929D02*
X27812000Y-64940000D01*
X27052000Y-73600000D02*
X27052000Y-67600000D01*
X27812000Y-73600000D02*
X27052000Y-73600000D01*
X27812000Y-67600000D02*
X27812000Y-73600000D01*
X28702000Y-64940000D02*
X28702000Y-67600000D01*
X29592000Y-64542929D02*
X29592000Y-64940000D01*
X30352000Y-64542929D02*
X30352000Y-64940000D01*
X29592000Y-73600000D02*
X29592000Y-67600000D01*
X30352000Y-73600000D02*
X29592000Y-73600000D01*
X30352000Y-67600000D02*
X30352000Y-73600000D01*
X31242000Y-64940000D02*
X31242000Y-67600000D01*
X32132000Y-64542929D02*
X32132000Y-64940000D01*
X32892000Y-64542929D02*
X32892000Y-64940000D01*
X32132000Y-73600000D02*
X32132000Y-67600000D01*
X32892000Y-73600000D02*
X32132000Y-73600000D01*
X32892000Y-67600000D02*
X32892000Y-73600000D01*
X33782000Y-64940000D02*
X33782000Y-67600000D01*
X34672000Y-64610000D02*
X34672000Y-64940000D01*
X35432000Y-64610000D02*
X35432000Y-64940000D01*
X34772000Y-67600000D02*
X34772000Y-73600000D01*
X34892000Y-67600000D02*
X34892000Y-73600000D01*
X35012000Y-67600000D02*
X35012000Y-73600000D01*
X35132000Y-67600000D02*
X35132000Y-73600000D01*
X35252000Y-67600000D02*
X35252000Y-73600000D01*
X35372000Y-67600000D02*
X35372000Y-73600000D01*
X34672000Y-73600000D02*
X34672000Y-67600000D01*
X35432000Y-73600000D02*
X34672000Y-73600000D01*
X35432000Y-67600000D02*
X35432000Y-73600000D01*
X36382000Y-67600000D02*
X36382000Y-64940000D01*
X26102000Y-67600000D02*
X36382000Y-67600000D01*
X26102000Y-64940000D02*
X26102000Y-67600000D01*
X36382000Y-64940000D02*
X26102000Y-64940000D01*
%TO.C,J1*%
D11*
X24614380Y-12712333D02*
X25328666Y-12712333D01*
X25471523Y-12759952D01*
X25566761Y-12855190D01*
X25614380Y-12998047D01*
X25614380Y-13093285D01*
X25614380Y-11712333D02*
X25614380Y-12283761D01*
X25614380Y-11998047D02*
X24614380Y-11998047D01*
X24757238Y-12093285D01*
X24852476Y-12188523D01*
X24900095Y-12283761D01*
%TO.C,J2*%
X36774380Y-68218333D02*
X37488666Y-68218333D01*
X37631523Y-68265952D01*
X37726761Y-68361190D01*
X37774380Y-68504047D01*
X37774380Y-68599285D01*
X36869619Y-67789761D02*
X36822000Y-67742142D01*
X36774380Y-67646904D01*
X36774380Y-67408809D01*
X36822000Y-67313571D01*
X36869619Y-67265952D01*
X36964857Y-67218333D01*
X37060095Y-67218333D01*
X37202952Y-67265952D01*
X37774380Y-67837380D01*
X37774380Y-67218333D01*
%TD*%
M02*
