%TF.GenerationSoftware,KiCad,Pcbnew,5.1.10-88a1d61d58~88~ubuntu18.04.1*%
%TF.CreationDate,2022-01-29T18:32:19+01:00*%
%TF.ProjectId,pavlov_mini_face,7061766c-6f76-45f6-9d69-6e695f666163,rev?*%
%TF.SameCoordinates,Original*%
%TF.FileFunction,Soldermask,Bot*%
%TF.FilePolarity,Negative*%
%FSLAX46Y46*%
G04 Gerber Fmt 4.6, Leading zero omitted, Abs format (unit mm)*
G04 Created by KiCad (PCBNEW 5.1.10-88a1d61d58~88~ubuntu18.04.1) date 2022-01-29 18:32:19*
%MOMM*%
%LPD*%
G01*
G04 APERTURE LIST*
%ADD10C,3.200000*%
%ADD11C,1.665000*%
%ADD12O,1.700000X1.700000*%
%ADD13R,1.700000X1.700000*%
G04 APERTURE END LIST*
D10*
%TO.C,REF\u002A\u002A*%
X17018000Y-23622000D03*
%TD*%
%TO.C,REF\u002A\u002A*%
X17272000Y-57404000D03*
%TD*%
D11*
%TO.C,IC1*%
X25400000Y-48006000D03*
X27940000Y-48006000D03*
X30480000Y-48006000D03*
X33020000Y-48006000D03*
X40640000Y-40386000D03*
X40640000Y-37846000D03*
%TD*%
D12*
%TO.C,J1*%
X35052000Y-16764000D03*
X32512000Y-16764000D03*
X29972000Y-16764000D03*
D13*
X27432000Y-16764000D03*
%TD*%
D12*
%TO.C,J2*%
X27432000Y-63500000D03*
X29972000Y-63500000D03*
X32512000Y-63500000D03*
D13*
X35052000Y-63500000D03*
%TD*%
M02*
